<svg xmlns="http://www.w3.org/2000/svg" width="23.97" height="24" viewBox="0 0 23.97 24">
  <metadata><?xpacket begin="﻿" id="W5M0MpCehiHzreSzNTczkc9d"?>
<x:xmpmeta xmlns:x="adobe:ns:meta/" x:xmptk="Adobe XMP Core 5.6-c140 79.160451, 2017/05/06-01:08:21        ">
   <rdf:RDF xmlns:rdf="http://www.w3.org/1999/02/22-rdf-syntax-ns#">
      <rdf:Description rdf:about=""/>
   </rdf:RDF>
</x:xmpmeta>
                                                                                                    
                                                                                                    
                                                                                                    
                                                                                                    
                                                                                                    
                                                                                                    
                                                                                                    
                                                                                                    
                                                                                                    
                                                                                                    
                                                                                                    
                                                                                                    
                                                                                                    
                                                                                                    
                                                                                                    
                                                                                                    
                                                                                                    
                                                                                                    
                                                                                                    
                                                                                                    
                           
<?xpacket end="w"?></metadata>
<defs>
    <style>
      .cls-1 {
        fill: #1d96ee;
        fill-rule: evenodd;
      }
    </style>
  </defs>
  <path id="ic_quick_actions_contact" class="cls-1" d="M1590.98,721.714a0.567,0.567,0,0,1-.57-0.571V710.857a1.718,1.718,0,0,0-1.72-1.714h-11.41a1.709,1.709,0,0,0-1.71,1.714v10.286a0.575,0.575,0,0,1-1.15,0V710.857a2.86,2.86,0,0,1,2.86-2.857h11.41a2.86,2.86,0,0,1,2.86,2.857v10.286A0.573,0.573,0,0,1,1590.98,721.714ZM1592.12,732h-18.27a2.813,2.813,0,0,1-2.85-2.766v-10.24c0-1.525,1.28-2.423,2.85-2.423h0.57a0.572,0.572,0,1,1,0,1.143h-0.57c-0.94,0-1.71.386-1.71,1.28v10.24a1.672,1.672,0,0,0,1.71,1.623h18.27a1.672,1.672,0,0,0,1.71-1.623v-10.24c0-.894-0.77-1.28-1.71-1.28h-0.57a0.572,0.572,0,0,1,0-1.143h0.57c1.57,0,2.85.9,2.85,2.423v10.24A2.813,2.813,0,0,1,1592.12,732Zm-9.13-4.571-11.61-7.5a0.573,0.573,0,0,1,.63-0.957l10.98,7.313,10.98-7.313a0.574,0.574,0,0,1,.79.165,0.58,0.58,0,0,1-.17.792Zm-11.3,2.651a0.574,0.574,0,0,1-.31-1.05l7.68-5.033a0.573,0.573,0,0,1,.79.165,0.579,0.579,0,0,1-.17.791l-7.67,5.034A0.6,0.6,0,0,1,1571.69,730.08Zm22.59,0a0.541,0.541,0,0,1-.31-0.093l-7.59-4.973a0.573,0.573,0,0,1,.63-0.957l7.58,4.973A0.57,0.57,0,0,1,1594.28,730.08Zm-6.16-11.794h-10.27a0.572,0.572,0,0,1,0-1.143h10.27A0.572,0.572,0,0,1,1588.12,718.286Zm0-2.858h-10.27a0.571,0.571,0,0,1,0-1.142h10.27A0.571,0.571,0,0,1,1588.12,715.428Zm-4.56-2.857h-5.71a0.572,0.572,0,0,1,0-1.143h5.71A0.572,0.572,0,0,1,1583.56,712.571Zm4.56,0h-2.28a0.572,0.572,0,0,1,0-1.143h2.28A0.572,0.572,0,0,1,1588.12,712.571Zm0,8.572h-5.7a0.572,0.572,0,1,1,0-1.143h5.7A0.572,0.572,0,0,1,1588.12,721.143Zm-7.99,0h-2.28a0.572,0.572,0,0,1,0-1.143h2.28A0.572,0.572,0,0,1,1580.13,721.143Z" transform="translate(-1571 -708)"/>
</svg>
